{
  "project_info": {
    "project_number": "315894628449",
    "firebase_url": "https://traffickcam-userstudy.firebaseio.com",
    "project_id": "traffickcam-userstudy",
    "storage_bucket": "traffickcam-userstudy.appspot.com"
  },
  "client": [
    {
      "client_info": {
        "mobilesdk_app_id": "1:315894628449:android:811407a2d9501e99",
        "android_client_info": {
          "package_name": "com.tcamdev.traffickcam"
        }
      },
      "oauth_client": [
        {
          "client_id": "315894628449-j9un7ij12tfk7rrc93to0ir36v60vvnj.apps.googleusercontent.com",
          "client_type": 1,
          "android_info": {
            "package_name": "com.tcamdev.traffickcam",
            "certificate_hash": "af91ccffa152e54bd896e1a6f9ad64443d82f824"
          }
        },
        {
          "client_id": "315894628449-bli97u9fl6n6s1usspbsbnpegi5nrreq.apps.googleusercontent.com",
          "client_type": 3
        }
      ],
      "api_key": [
        {
          "current_key": "AIzaSyC_Aqt11al1mpiYgPGxavForQ9dxhqUInc"
        }
      ],
      "services": {
        "analytics_service": {
          "status": 1
        },
        "appinvite_service": {
          "status": 2,
          "other_platform_oauth_client": [
            {
              "client_id": "315894628449-bli97u9fl6n6s1usspbsbnpegi5nrreq.apps.googleusercontent.com",
              "client_type": 3
            }
          ]
        },
        "ads_service": {
          "status": 2
        }
      }
    }
  ],
  "configuration_version": "1"
}
